digraph "/home/student/cpp/Figure/src/disque.h"
{
  edge [fontname="Helvetica",fontsize="10",labelfontname="Helvetica",labelfontsize="10"];
  node [fontname="Helvetica",fontsize="10",shape=record];
  Node0 [label="/home/student/cpp/Figure\l/src/disque.h",height=0.2,width=0.4,color="black", fillcolor="grey75", style="filled", fontcolor="black"];
  Node0 -> Node1 [color="midnightblue",fontsize="10",style="solid",fontname="Helvetica"];
  Node1 [label="iostream",height=0.2,width=0.4,color="grey75", fillcolor="white", style="filled"];
  Node0 -> Node2 [color="midnightblue",fontsize="10",style="solid",fontname="Helvetica"];
  Node2 [label="figure.h",height=0.2,width=0.4,color="black", fillcolor="white", style="filled",URL="$figure_8h.html",tooltip="description "];
  Node2 -> Node1 [color="midnightblue",fontsize="10",style="solid",fontname="Helvetica"];
}
