digraph "Graphical Class Hierarchy"
{
  edge [fontname="Helvetica",fontsize="10",labelfontname="Helvetica",labelfontsize="10"];
  node [fontname="Helvetica",fontsize="10",shape=record];
  rankdir="LR";
  Node0 [label="figure",height=0.2,width=0.4,color="black", fillcolor="white", style="filled",URL="$classfigure.html"];
  Node0 -> Node1 [dir="back",color="midnightblue",fontsize="10",style="solid",fontname="Helvetica"];
  Node1 [label="disque",height=0.2,width=0.4,color="black", fillcolor="white", style="filled",URL="$classdisque.html",tooltip="class avec calcul de l&#39;aire et perimetre d&#39;un disque "];
  Node0 -> Node2 [dir="back",color="midnightblue",fontsize="10",style="solid",fontname="Helvetica"];
  Node2 [label="rectangle",height=0.2,width=0.4,color="black", fillcolor="white", style="filled",URL="$classrectangle.html",tooltip="class avec calcul de l&#39;aire et perimetre d&#39;un rectangle "];
  Node0 -> Node3 [dir="back",color="midnightblue",fontsize="10",style="solid",fontname="Helvetica"];
  Node3 [label="triangle",height=0.2,width=0.4,color="black", fillcolor="white", style="filled",URL="$classtriangle.html",tooltip="class triangle pour calcul de l&#39;aire et perimetre d&#39;un triangle "];
}
